06_analysis_lm_vital
…
Selecting variables, grouping and nesting the data for the linear modelling

We want to make a linear model of the peptide expression levels and the overall survival. From this we can investigate if there are a difference in the expression levels of some proteins between patients who survives and patients who dies.

Selecting the variables that we want to use for the linear modeling. NA’s in “expression” are dropped, as we cannot make a linear model with missing expression values.

expression_meta_data_lm_vital <- expression_meta_data_aug |> 
  select(overall_survival, 
         peptide_target,
         expression) |> 
   drop_na(expression)

expression_meta_data_lm_vital

# A tibble: 161,195 × 3
   overall_survival peptide_target expression
              <dbl> <chr>               <dbl>
 1                1 1433BETA          -0.0974
 2                1 1433EPSILON       -0.0884
 3                1 1433ZETA           0.295 
 4                1 4EBP1              0.236 
 5                1 4EBP1_pS65        -0.332 
 6                1 4EBP1_pT37T46     -0.209 
 7                1 4EBP1_pT70        -0.0246
 8                1 53BP1             -0.644 
 9                1 ACC_pS79          -0.590 
10                1 ACC1              -0.119 
# ℹ 161,185 more rows

Grouping the data by peptide_target and nesting the data so that each peptide_target gets a dataframe that contains the overall survival and the protein expression for all the patients.

expression_meta_data_lm_vital_nested <- expression_meta_data_lm_vital |> 
  group_by(peptide_target) |> 
  nest() 

expression_meta_data_lm_vital_nested

# A tibble: 469 × 2
# Groups:   peptide_target [469]
   peptide_target data              
   <chr>          <list>            
 1 1433BETA       <tibble [353 × 2]>
 2 1433EPSILON    <tibble [353 × 2]>
 3 1433ZETA       <tibble [353 × 2]>
 4 4EBP1          <tibble [353 × 2]>
 5 4EBP1_pS65     <tibble [353 × 2]>
 6 4EBP1_pT37T46  <tibble [353 × 2]>
 7 4EBP1_pT70     <tibble [353 × 2]>
 8 53BP1          <tibble [353 × 2]>
 9 ACC_pS79       <tibble [353 × 2]>
10 ACC1           <tibble [353 × 2]>
# ℹ 459 more rows

Adding the linear model to the dataset

Adding the linear model to the data using mutate() and lm().

expression_meta_data_lm_vital_nested_model <- expression_meta_data_lm_vital_nested |> 
  mutate(model_object = map(.x = data,
                            .f = ~lm(formula = expression ~ overall_survival,
                                   data = .x)))

expression_meta_data_lm_vital_nested_model

# A tibble: 469 × 3
# Groups:   peptide_target [469]
   peptide_target data               model_object
   <chr>          <list>             <list>      
 1 1433BETA       <tibble [353 × 2]> <lm>        
 2 1433EPSILON    <tibble [353 × 2]> <lm>        
 3 1433ZETA       <tibble [353 × 2]> <lm>        
 4 4EBP1          <tibble [353 × 2]> <lm>        
 5 4EBP1_pS65     <tibble [353 × 2]> <lm>        
 6 4EBP1_pT37T46  <tibble [353 × 2]> <lm>        
 7 4EBP1_pT70     <tibble [353 × 2]> <lm>        
 8 53BP1          <tibble [353 × 2]> <lm>        
 9 ACC_pS79       <tibble [353 × 2]> <lm>        
10 ACC1           <tibble [353 × 2]> <lm>        
# ℹ 459 more rows

Computing the confidence intervals and p-value based on th elinear model using the tidy()-function

expression_meta_data_lm_vital_nested_model_tidy <- expression_meta_data_lm_vital_nested_model |> 
  mutate(model_object_tidy = map(.x = model_object,
                                 .f = ~ tidy(conf.int = TRUE,
                                             conf.level = 0.95,
                                             x =.x)))

expression_meta_data_lm_vital_nested_model_tidy

# A tibble: 469 × 4
# Groups:   peptide_target [469]
   peptide_target data               model_object model_object_tidy
   <chr>          <list>             <list>       <list>           
 1 1433BETA       <tibble [353 × 2]> <lm>         <tibble [2 × 7]> 
 2 1433EPSILON    <tibble [353 × 2]> <lm>         <tibble [2 × 7]> 
 3 1433ZETA       <tibble [353 × 2]> <lm>         <tibble [2 × 7]> 
 4 4EBP1          <tibble [353 × 2]> <lm>         <tibble [2 × 7]> 
 5 4EBP1_pS65     <tibble [353 × 2]> <lm>         <tibble [2 × 7]> 
 6 4EBP1_pT37T46  <tibble [353 × 2]> <lm>         <tibble [2 × 7]> 
 7 4EBP1_pT70     <tibble [353 × 2]> <lm>         <tibble [2 × 7]> 
 8 53BP1          <tibble [353 × 2]> <lm>         <tibble [2 × 7]> 
 9 ACC_pS79       <tibble [353 × 2]> <lm>         <tibble [2 × 7]> 
10 ACC1           <tibble [353 × 2]> <lm>         <tibble [2 × 7]> 
# ℹ 459 more rows

Wrangling the expression data estimates

expression_meta_data_lm_vital_estimates <- expression_meta_data_lm_vital_nested_model_tidy |>
  unnest(model_object_tidy)

expression_meta_data_lm_vital_estimates

# A tibble: 938 × 10
# Groups:   peptide_target [469]
   peptide_target data     model_object term        estimate std.error statistic
   <chr>          <list>   <list>       <chr>          <dbl>     <dbl>     <dbl>
 1 1433BETA       <tibble> <lm>         (Intercept)  0.0284    0.00985    2.89  
 2 1433BETA       <tibble> <lm>         overall_su… -0.00132   0.0140    -0.0939
 3 1433EPSILON    <tibble> <lm>         (Intercept)  0.0838    0.0164     5.12  
 4 1433EPSILON    <tibble> <lm>         overall_su… -0.00426   0.0233    -0.182 
 5 1433ZETA       <tibble> <lm>         (Intercept)  0.554     0.0364    15.2   
 6 1433ZETA       <tibble> <lm>         overall_su… -0.0169    0.0519    -0.326 
 7 4EBP1          <tibble> <lm>         (Intercept)  0.499     0.0401    12.5   
 8 4EBP1          <tibble> <lm>         overall_su… -0.116     0.0571    -2.04  
 9 4EBP1_pS65     <tibble> <lm>         (Intercept) -0.179     0.0233    -7.66  
10 4EBP1_pS65     <tibble> <lm>         overall_su…  0.0108    0.0332     0.324 
# ℹ 928 more rows
# ℹ 3 more variables: p.value <dbl>, conf.low <dbl>, conf.high <dbl>
…
Then we select the peptide_targets, p.value, estimate and confidence interval. To be able to analyse if there are significant differences between expression compared to their vital status.

expression_meta_data_lm_vital_estimates_clean <- expression_meta_data_lm_vital_estimates |> 
  filter(term == "overall_survival") |> 
  select(peptide_target,
         p.value,
         estimate,
         conf.low,
         conf.high) |> 
  ungroup(peptide_target)

expression_meta_data_lm_vital_estimates_clean

# A tibble: 469 × 5
   peptide_target p.value estimate conf.low conf.high
   <chr>            <dbl>    <dbl>    <dbl>     <dbl>
 1 1433BETA        0.925  -0.00132  -0.0289   0.0263 
 2 1433EPSILON     0.855  -0.00426  -0.0502   0.0416 
 3 1433ZETA        0.744  -0.0169   -0.119    0.0852 
 4 4EBP1           0.0424 -0.116    -0.229   -0.00403
 5 4EBP1_pS65      0.746   0.0108   -0.0546   0.0761 
 6 4EBP1_pT37T46   0.0822 -0.123    -0.261    0.0157 
 7 4EBP1_pT70      0.0110 -0.0720   -0.127   -0.0166 
 8 53BP1           0.867   0.00944  -0.101    0.120  
 9 ACC_pS79        0.852   0.00817  -0.0777   0.0941 
10 ACC1            0.302   0.0583   -0.0527   0.169  
# ℹ 459 more rows

Adding the adjusted p-value in a new variable, q.value, and add extra variable that tells if the q-value is significant or not with alpha = 5%

expression_meta_data_lm_vital_estimates_clean <- expression_meta_data_lm_vital_estimates_clean |> 
  mutate(q.value = p.adjust(p = p.value),
         is_significant = case_when(q.value > 0.05 ~ "no",
                                    q.value <= 0.05 ~ "yes"),
         label = case_when(is_significant == "yes" ~ peptide_target,
                           is_significant == "no" ~ ""))

expression_meta_data_lm_vital_estimates_clean

# A tibble: 469 × 8
   peptide_target p.value estimate conf.low conf.high q.value is_significant
   <chr>            <dbl>    <dbl>    <dbl>     <dbl>   <dbl> <chr>         
 1 1433BETA        0.925  -0.00132  -0.0289   0.0263        1 no            
 2 1433EPSILON     0.855  -0.00426  -0.0502   0.0416        1 no            
 3 1433ZETA        0.744  -0.0169   -0.119    0.0852        1 no            
 4 4EBP1           0.0424 -0.116    -0.229   -0.00403       1 no            
 5 4EBP1_pS65      0.746   0.0108   -0.0546   0.0761        1 no            
 6 4EBP1_pT37T46   0.0822 -0.123    -0.261    0.0157        1 no            
 7 4EBP1_pT70      0.0110 -0.0720   -0.127   -0.0166        1 no            
 8 53BP1           0.867   0.00944  -0.101    0.120         1 no            
 9 ACC_pS79        0.852   0.00817  -0.0777   0.0941        1 no            
10 ACC1            0.302   0.0583   -0.0527   0.169         1 no            
# ℹ 459 more rows
# ℹ 1 more variable: label <chr>
…
