08_analysis_4
…
Principle component coordinates

Transposing the dataframe so the data is in the format for doing a PCA on the proteins. This is done using pivot_longer() and pivot_wider(). NA’s are dropped.

protein_data_trans <- protein_data |> 
  drop_na() |> 
  pivot_longer(col = -1,
               names_to = "sample",
               values_to = "expression") |> 
  pivot_wider(names_from = peptide_target,
              values_from = expression)

protein_data_trans

# A tibble: 354 × 218
   sample           `1433BETA` `1433EPSILON` `1433ZETA` `4EBP1` `4EBP1_pS65`
   <chr>                 <dbl>         <dbl>      <dbl>   <dbl>        <dbl>
 1 TCGA-CV-7416-01A   -0.133         -0.265       0.353   0.215       0.0329
 2 TCGA-CX-7219-01A    0.395          0.297       1.52    0.567      -0.387 
 3 TCGA-CQ-7068-01A    0.151          0.100       0.820   0.989       0.380 
 4 TCGA-CN-6021-01A    0.225          0.0603      0.940   0.548      -0.538 
 5 TCGA-CV-7424-01A   -0.0370        -0.167       0.126   0.193      -0.244 
 6 TCGA-CV-6955-01A    0.0678        -0.0428      0.379   0.368      -0.267 
 7 TCGA-T2-A6WZ-01A    0.00866       -0.0626      0.374   0.129      -0.141 
 8 TCGA-CV-7245-01A   -0.0883        -0.157       0.300   0.311      -0.168 
 9 TCGA-CN-5355-01A    0.0539        -0.0848      1.12    1.40       -0.454 
10 TCGA-CQ-6229-01A   -0.359          0.0177      0.719   1.37        0.512 
# ℹ 344 more rows
# ℹ 212 more variables: `4EBP1_pT37T46` <dbl>, `4EBP1_pT70` <dbl>,
#   `53BP1` <dbl>, ACC_pS79 <dbl>, ACC1 <dbl>, ACETYLATUBULINLYS40 <dbl>,
#   ACVRL1 <dbl>, ADAR1 <dbl>, AKT <dbl>, AKT_pS473 <dbl>, AKT_pT308 <dbl>,
#   AMPKALPHA <dbl>, AMPKALPHA_pT172 <dbl>, ANNEXIN1 <dbl>, ANNEXINVII <dbl>,
#   AR <dbl>, ARAF <dbl>, ARAF_pS299 <dbl>, ARID1A <dbl>, ASNS <dbl>,
#   ATM <dbl>, BAD_pS112 <dbl>, BAK <dbl>, BAP1C4 <dbl>, BAX <dbl>, …
…
Rotation matrix

pca_analysis |> 
  tidy(matrix = "rotation")

# A tibble: 47,089 × 3
   column      PC    value
   <chr>    <dbl>    <dbl>
 1 1433BETA     1 -0.105  
 2 1433BETA     2  0.00157
 3 1433BETA     3 -0.00212
 4 1433BETA     4  0.0608 
 5 1433BETA     5 -0.0322 
 6 1433BETA     6  0.0136 
 7 1433BETA     7 -0.0897 
 8 1433BETA     8  0.00454
 9 1433BETA     9 -0.0359 
10 1433BETA    10  0.0975 
# ℹ 47,079 more rows
…
